# [Advent of Code](/)

  * [[About]](/2021/about)
  * [[Events]](/2021/events)
  * [[Shop]](https://teespring.com/stores/advent-of-code)
  * [[Settings]](/2021/settings)
  * [[Log Out]](/2021/auth/logout)

joeri reyns 24*

#  {'year':[2021](/2021)}

  * [[Calendar]](/2021)
  * [[AoC++]](/2021/support)
  * [[Sponsors]](/2021/sponsors)
  * [[Leaderboard]](/2021/leaderboard)
  * [[Stats]](/2021/stats)

Our [sponsors](/2021/sponsors) help make Advent of Code possible:

[Yoast](https://yoast.com/jobs/) \- Dreaming of your code on 12M sites
worldwide? Make your dreams come true! .--- --- -... ... .--.-. -.-- --- .-
... - .-.-.- -.-. --- --

## \--- Day 13: Transparent Origami ---

You reach another volcanically active part of the cave. It would be nice if
you could do some kind of thermal imaging so you could tell ahead of time
which caves are too hot to safely enter.

Fortunately, the submarine seems to be equipped with a thermal camera! When
you activate it, you are greeted with:

    
    
    Congratulations on your purchase! To activate this infrared thermal imaging
    camera system, please enter the code found on page 1 of the manual.
    

Apparently, the Elves have never used this feature. To your surprise, you
manage to find the manual; as you go to open it, page 1 falls out. It's a
large sheet of [transparent
paper](https://en.wikipedia.org/wiki/Transparency_\(projection\))! The
transparent paper is marked with random dots and includes instructions on how
to fold it up (your puzzle input). For example:

    
    
    6,10
    0,14
    9,10
    0,3
    10,4
    4,11
    6,0
    6,12
    4,1
    0,13
    10,12
    3,4
    3,0
    8,4
    1,10
    2,14
    8,10
    9,0
    
    fold along y=7
    fold along x=5
    

The first section is a list of dots on the transparent paper. `0,0` represents
the top-left coordinate. The first value, `x`, increases to the right. The
second value, `y`, increases downward. So, the coordinate `3,0` is to the
right of `0,0`, and the coordinate `0,7` is below `0,0`. The coordinates in
this example form the following pattern, where `#` is a dot on the paper and
`.` is an empty, unmarked position:

    
    
    ...#..#..#.
    ....#......
    ...........
    #..........
    ...#....#.#
    ...........
    ...........
    ...........
    ...........
    ...........
    .#....#.##.
    ....#......
    ......#...#
    #..........
    #.#........
    

Then, there is a list of _fold instructions_. Each instruction indicates a
line on the transparent paper and wants you to fold the paper _up_ (for
horizontal `y=...` lines) or _left_ (for vertical `x=...` lines). In this
example, the first fold instruction is `fold along y=7`, which designates the
line formed by all of the positions where `y` is `7` (marked here with `-`):

    
    
    ...#..#..#.
    ....#......
    ...........
    #..........
    ...#....#.#
    ...........
    ...........
    -----------
    ...........
    ...........
    .#....#.##.
    ....#......
    ......#...#
    #..........
    #.#........
    

Because this is a horizontal line, fold the bottom half _up_. Some of the dots
might end up overlapping after the fold is complete, but dots will never
appear exactly on a fold line. The result of doing this fold looks like this:

    
    
    #.##..#..#.
    #...#......
    ......#...#
    #...#......
    .#.#..#.###
    ...........
    ...........
    

Now, only `17` dots are visible.

Notice, for example, the two dots in the bottom left corner before the
transparent paper is folded; after the fold is complete, those dots appear in
the top left corner (at `0,0` and `0,1`). Because the paper is transparent,
the dot just below them in the result (at `0,3`) remains visible, as it can be
seen through the transparent paper.

Also notice that some dots can end up _overlapping_ ; in this case, the dots
merge together and become a single dot.

The second fold instruction is `fold along x=5`, which indicates this line:

    
    
    #.##.|#..#.
    #...#|.....
    .....|#...#
    #...#|.....
    .#.#.|#.###
    .....|.....
    .....|.....
    

Because this is a vertical line, fold _left_ :

    
    
    #####
    #...#
    #...#
    #...#
    #####
    .....
    .....
    

The instructions made a square!

The transparent paper is pretty big, so for now, focus on just completing the
first fold. After the first fold in the example above, `_17_` dots are visible
- dots that end up overlapping after the fold is completed count as a single
dot.

_How many dots are visible after completing just the first fold instruction on
your transparent paper?_

To begin, [get your puzzle input](13/input).

Answer:

You can also [Shareon
[Twitter](https://twitter.com/intent/tweet?text=%22Transparent+Origami%22+%2D+Day+13+%2D+Advent+of+Code+2021&url=https%3A%2F%2Fadventofcode%2Ecom%2F2021%2Fday%2F13&related=ericwastl&hashtags=AdventOfCode)
[Mastodon](javascript:void\(0\);)] this puzzle.

