# [Advent of Code](/)

  * [[About]](/2021/about)
  * [[Events]](/2021/events)
  * [[Shop]](https://teespring.com/stores/advent-of-code)
  * [[Settings]](/2021/settings)
  * [[Log Out]](/2021/auth/logout)

joeri reyns 37*

#    var y=[2021](/2021);

  * [[Calendar]](/2021)
  * [[AoC++]](/2021/support)
  * [[Sponsors]](/2021/sponsors)
  * [[Leaderboard]](/2021/leaderboard)
  * [[Stats]](/2021/stats)

Our [sponsors](/2021/sponsors) help make Advent of Code possible:

[Codethink](https://www.codethink.co.uk/) \- Open Source System Software
Experts

## \--- Day 20: Trench Map ---

With the scanners fully deployed, you turn their attention to mapping the
floor of the ocean trench.

When you get back the image from the scanners, it seems to just be random
noise. Perhaps you can combine an image enhancement algorithm and the input
image (your puzzle input) to clean it up a little.

For example:

    
    
    ..#.#..#####.#.#.#.###.##.....###.##.#..###.####..#####..#....#..#..##..##
    #..######.###...####..#..#####..##..#.#####...##.#.#..#.##..#.#......#.###
    .######.###.####...#.##.##..#..#..#####.....#.#....###..#.##......#.....#.
    .#..#..##..#...##.######.####.####.#.#...#.......#..#.#.#...####.##.#.....
    .#..#...##.#.##..#...##.#.##..###.#......#.#.......#.#.#.####.###.##...#..
    ...####.#..#..#.##.#....##..#.####....##...##..#...#......#.#.......#.....
    ..##..####..#...#.#.#...##..#.#..###..#####........#..####......#..#
    
    #..#.
    #....
    ##..#
    ..#..
    ..###
    

The first section is the _image enhancement algorithm_. It is normally given
on a single line, but it has been wrapped to multiple lines in this example
for legibility. The second section is the _input image_ , a two-dimensional
grid of _light pixels_ (`#`) and _dark pixels_ (`.`).

The image enhancement algorithm describes how to enhance an image by
_simultaneously_ converting all pixels in the input image into an output
image. Each pixel of the output image is determined by looking at a 3x3 square
of pixels centered on the corresponding input image pixel. So, to determine
the value of the pixel at (5,10) in the output image, nine pixels from the
input image need to be considered: (4,9), (4,10), (4,11), (5,9), (5,10),
(5,11), (6,9), (6,10), and (6,11). These nine input pixels are combined into a
single binary number that is used as an index in the _image enhancement
algorithm_ string.

For example, to determine the output pixel that corresponds to the very middle
pixel of the input image, the nine pixels marked by `[...]` would need to be
considered:

    
    
    # . . # .
    #[. . .].
    #[# . .]#
    .[. # .].
    . . # # #
    

Starting from the top-left and reading across each row, these pixels are
`...`, then `#..`, then `.#.`; combining these forms `...#...#.`. By turning
dark pixels (`.`) into `0` and light pixels (`#`) into `1`, the binary number
`000100010` can be formed, which is `34` in decimal.

The image enhancement algorithm string is exactly 512 characters long, enough
to match every possible 9-bit binary number. The first few characters of the
string (numbered starting from zero) are as follows:

    
    
    0         10        20        30  _34_    40        50        60        70
    |         |         |         |   _|_     |         |         |         |
    ..#.#..#####.#.#.#.###.##.....###. _#_ #.#..###.####..#####..#....#..#..##..##
    

In the middle of this first group of characters, the character at index 34 can
be found: `#`. So, the output pixel in the center of the output image should
be `#`, a _light pixel_.

This process can then be repeated to calculate every pixel of the output
image.

Through advances in imaging technology, the images being operated on here are
_infinite_ in size. _Every_ pixel of the infinite output image needs to be
calculated exactly based on the relevant pixels of the input image. The small
input image you have is only a small region of the actual infinite input
image; the rest of the input image consists of dark pixels (`.`). For the
purposes of the example, to save on space, only a portion of the infinite-
sized input and output images will be shown.

The starting input image, therefore, looks something like this, with more dark
pixels (`.`) extending forever in every direction not shown here:

    
    
    ...............
    ...............
    ...............
    ...............
    ...............
    .....#..#......
    .....#.........
    .....##..#.....
    .......#.......
    .......###.....
    ...............
    ...............
    ...............
    ...............
    ...............
    

By applying the image enhancement algorithm to every pixel simultaneously, the
following output image can be obtained:

    
    
    ...............
    ...............
    ...............
    ...............
    .....##.##.....
    ....#..#.#.....
    ....##.#..#....
    ....####..#....
    .....#..##.....
    ......##..#....
    .......#.#.....
    ...............
    ...............
    ...............
    ...............
    

Through further advances in imaging technology, the above output image can
also be used as an input image! This allows it to be enhanced _a second time_
:

    
    
    ...............
    ...............
    ...............
    ..........#....
    ....#..#.#.....
    ...#.#...###...
    ...#...##.#....
    ...#.....#.#...
    ....#.#####....
    .....#.#####...
    ......##.##....
    .......###.....
    ...............
    ...............
    ...............
    

Truly incredible - now the small details are really starting to come through.
After enhancing the original input image twice, `_35_` pixels are lit.

Start with the original input image and apply the image enhancement algorithm
twice, being careful to account for the infinite size of the images. _How many
pixels are lit in the resulting image?_

Your puzzle answer was `5231`.

The first half of this puzzle is complete! It provides one gold star: *

## \--- Part Two ---

You still can't quite make out the details in the image. Maybe you just didn't
[enhance](https://en.wikipedia.org/wiki/Kernel_\(image_processing\)) it
enough.

If you enhance the starting input image in the above example a total of _50_
times, `_3351_` pixels are lit in the final output image.

Start again with the original input image and apply the image enhancement
algorithm 50 times. _How many pixels are lit in the resulting image?_

Answer:

Although it hasn't changed, you can still [get your puzzle input](20/input).

You can also [Shareon
[Twitter](https://twitter.com/intent/tweet?text=I%27ve+completed+Part+One+of+%22Trench+Map%22+%2D+Day+20+%2D+Advent+of+Code+2021&url=https%3A%2F%2Fadventofcode%2Ecom%2F2021%2Fday%2F20&related=ericwastl&hashtags=AdventOfCode)
[Mastodon](javascript:void\(0\);)] this puzzle.

