# [Advent of Code](/)

  * [[About]](/2022/about)
  * [[Events]](/2022/events)
  * [[Shop]](https://teespring.com/stores/advent-of-code)
  * [[Settings]](/2022/settings)
  * [[Log Out]](/2022/auth/logout)

joeri reyns 26*

#         //[2022](/2022)

  * [[Calendar]](/2022)
  * [[AoC++]](/2022/support)
  * [[Sponsors]](/2022/sponsors)
  * [[Leaderboard]](/2022/leaderboard)
  * [[Stats]](/2022/stats)

Our [sponsors](/2022/sponsors) help make Advent of Code possible:

[Ahrefs](https://ahrefs.com/) \- Work on the next general purpose search
engine, a world-class crawler, and real big data. Leveraging bleeding-edge
hardware and advanced programming technologies. From anywhere in the world.
OCaml, ReasonML, Dlang, C++

## \--- Day 14: Regolith Reservoir ---

The distress signal leads you to a giant waterfall! Actually, hang on - the
signal seems like it's coming from the waterfall itself, and that doesn't make
any sense. However, you do notice a little path that leads _behind_ the
waterfall.

Correction: the distress signal leads you behind a giant waterfall! There
seems to be a large cave system here, and the signal definitely leads further
inside.

As you begin to make your way deeper underground, you feel the ground rumble
for a moment. Sand begins pouring into the cave! If you don't quickly figure
out where the sand is going, you could quickly become trapped!

Fortunately, your [familiarity](/2018/day/17) with analyzing the path of
falling material will come in handy here. You scan a two-dimensional vertical
slice of the cave above you (your puzzle input) and discover that it is mostly
_air_ with structures made of _rock_.

Your scan traces the path of each solid rock structure and reports the `x,y`
coordinates that form the shape of the path, where `x` represents distance to
the right and `y` represents distance down. Each path appears as a single line
of text in your scan. After the first point of each path, each point indicates
the end of a straight horizontal or vertical line to be drawn from the
previous point. For example:

    
    
    498,4 -> 498,6 -> 496,6
    503,4 -> 502,4 -> 502,9 -> 494,9
    

This scan means that there are two paths of rock; the first path consists of
two straight lines, and the second path consists of three straight lines.
(Specifically, the first path consists of a line of rock from `498,4` through
`498,6` and another line of rock from `498,6` through `496,6`.)

The sand is pouring into the cave from point `500,0`.

Drawing rock as `#`, air as `.`, and the source of the sand as `+`, this
becomes:

    
    
      4     5  5
      9     0  0
      4     0  3
    0 ......+...
    1 ..........
    2 ..........
    3 ..........
    4 ....#...##
    5 ....#...#.
    6 ..###...#.
    7 ........#.
    8 ........#.
    9 #########.
    

Sand is produced _one unit at a time_ , and the next unit of sand is not
produced until the previous unit of sand _comes to rest_. A unit of sand is
large enough to fill one tile of air in your scan.

A unit of sand always falls _down one step_ if possible. If the tile
immediately below is blocked (by rock or sand), the unit of sand attempts to
instead move diagonally _one step down and to the left_. If that tile is
blocked, the unit of sand attempts to instead move diagonally _one step down
and to the right_. Sand keeps moving as long as it is able to do so, at each
step trying to move down, then down-left, then down-right. If all three
possible destinations are blocked, the unit of sand _comes to rest_ and no
longer moves, at which point the next unit of sand is created back at the
source.

So, drawing sand that has come to rest as `o`, the first unit of sand simply
falls straight down and then stops:

    
    
    ......+...
    ..........
    ..........
    ..........
    ....#...##
    ....#...#.
    ..###...#.
    ........#.
    ...... _o_.#.
    #########.
    

The second unit of sand then falls straight down, lands on the first one, and
then comes to rest to its left:

    
    
    ......+...
    ..........
    ..........
    ..........
    ....#...##
    ....#...#.
    ..###...#.
    ........#.
    .....oo.#.
    #########.
    

After a total of five units of sand have come to rest, they form this pattern:

    
    
    ......+...
    ..........
    ..........
    ..........
    ....#...##
    ....#...#.
    ..###...#.
    ......o.#.
    ....oooo#.
    #########.
    

After a total of 22 units of sand:

    
    
    ......+...
    ..........
    ......o...
    .....ooo..
    ....#ooo##
    ....#ooo#.
    ..###ooo#.
    ....oooo#.
    ...ooooo#.
    #########.
    

Finally, only two more units of sand can possibly come to rest:

    
    
    ......+...
    ..........
    ......o...
    .....ooo..
    ....#ooo##
    ... _o_ #ooo#.
    ..###ooo#.
    ....oooo#.
    . _o_.ooooo#.
    #########.
    

Once all `_24_` units of sand shown above have come to rest, all further sand
flows out the bottom, falling into the endless void. Just for fun, the path
any new sand takes before falling forever is shown here with `~`:

    
    
    .......+...
    .......~...
    ......~o...
    .....~ooo..
    ....~#ooo##
    ...~o#ooo#.
    ..~###ooo#.
    ..~..oooo#.
    .~o.ooooo#.
    ~#########.
    ~..........
    ~..........
    ~..........
    

Using your scan, simulate the falling sand. _How many units of sand come to
rest before sand starts flowing into the abyss below?_

To begin, [get your puzzle input](14/input).

Answer:

You can also [Shareon
[Twitter](https://twitter.com/intent/tweet?text=%22Regolith+Reservoir%22+%2D+Day+14+%2D+Advent+of+Code+2022&url=https%3A%2F%2Fadventofcode%2Ecom%2F2022%2Fday%2F14&related=ericwastl&hashtags=AdventOfCode)
[Mastodon](javascript:void\(0\);)] this puzzle.

