# [Advent of Code](/)

  * [[About]](/2024/about)
  * [[Events]](/2024/events)
  * [[Shop]](https://cottonbureau.com/people/advent-of-code)
  * [[Settings]](/2024/settings)
  * [[Log Out]](/2024/auth/logout)

joeri reyns 11*

#    0x0000|[2024](/2024)

  * [[Calendar]](/2024)
  * [[AoC++]](/2024/support)
  * [[Sponsors]](/2024/sponsors)
  * [[Leaderboard]](/2024/leaderboard)
  * [[Stats]](/2024/stats)

Our [sponsors](/2024/sponsors) help make Advent of Code possible:

[Formlabs](/2024/sponsors/redirect?url=https%3A%2F%2Fcareers%2Eformlabs%2Ecom%2F)
\- Gifts 3D printed early; solving coding challenges instead!

## \--- Day 6: Guard Gallivant ---

The Historians use their fancy [device](4) again, this time to whisk you all
away to the North Pole prototype suit manufacturing lab... in the year
[1518](/2018/day/5)! It turns out that having direct access to history is very
convenient for a group of historians.

You still have to be careful of time paradoxes, and so it will be important to
avoid anyone from 1518 while The Historians search for the Chief.
Unfortunately, a single _guard_ is patrolling this part of the lab.

Maybe you can work out where the guard will go ahead of time so that The
Historians can search safely?

You start by making a map (your puzzle input) of the situation. For example:

    
    
    ....#.....
    .........#
    ..........
    ..#.......
    .......#..
    ..........
    .#..^.....
    ........#.
    #.........
    ......#...
    

The map shows the current position of the guard with `^` (to indicate the
guard is currently facing _up_ from the perspective of the map). Any
_obstructions_ \- crates, desks, alchemical reactors, etc. - are shown as `#`.

Lab guards in 1518 follow a very strict patrol protocol which involves
repeatedly following these steps:

  * If there is something directly in front of you, turn right 90 degrees.
  * Otherwise, take a step forward.

Following the above protocol, the guard moves up several times until she
reaches an obstacle (in this case, a pile of failed suit prototypes):

    
    
    ....#.....
    ....^....#
    ..........
    ..#.......
    .......#..
    ..........
    .#........
    ........#.
    #.........
    ......#...
    

Because there is now an obstacle in front of the guard, she turns right before
continuing straight in her new facing direction:

    
    
    ....#.....
    ........>#
    ..........
    ..#.......
    .......#..
    ..........
    .#........
    ........#.
    #.........
    ......#...
    

Reaching another obstacle (a spool of several _very_ long polymers), she turns
right again and continues downward:

    
    
    ....#.....
    .........#
    ..........
    ..#.......
    .......#..
    ..........
    .#......v.
    ........#.
    #.........
    ......#...
    

This process continues for a while, but the guard eventually leaves the mapped
area (after walking past a tank of universal solvent):

    
    
    ....#.....
    .........#
    ..........
    ..#.......
    .......#..
    ..........
    .#........
    ........#.
    #.........
    ......#v..
    

By predicting the guard's route, you can determine which specific positions in
the lab will be in the patrol path. _Including the guard's starting position_
, the positions visited by the guard before leaving the area are marked with
an `X`:

    
    
    ....#.....
    ....XXXXX#
    ....X...X.
    ..#.X...X.
    ..XXXXX#X.
    ..X.X.X.X.
    .#XXXXXXX.
    .XXXXXXX#.
    #XXXXXXX..
    ......#X..
    

In this example, the guard will visit `_41_` distinct positions on your map.

Predict the path of the guard. _How many distinct positions will the guard
visit before leaving the mapped area?_

Your puzzle answer was `4374`.

The first half of this puzzle is complete! It provides one gold star: *

## \--- Part Two ---

While The Historians begin working around the guard's patrol route, you borrow
their fancy device and step outside the lab. From the safety of a supply
closet, you time travel through the last few months and [record](/2018/day/4)
the nightly status of the lab's guard post on the walls of the closet.

Returning after what seems like only a few seconds to The Historians, they
explain that the guard's patrol area is simply too large for them to safely
search the lab without getting caught.

Fortunately, they are _pretty sure_ that adding a single new obstruction
_won't_ cause a time paradox. They'd like to place the new obstruction in such
a way that the guard will get _stuck in a loop_ , making the rest of the lab
safe to search.

To have the lowest chance of creating a time paradox, The Historians would
like to know _all_ of the possible positions for such an obstruction. The new
obstruction can't be placed at the guard's starting position - the guard is
there right now and would notice.

In the above example, there are only `_6_` different positions where a new
obstruction would cause the guard to get stuck in a loop. The diagrams of
these six situations use `O` to mark the new obstruction, `|` to show a
position where the guard moves up/down, `-` to show a position where the guard
moves left/right, and `+` to show a position where the guard moves both
up/down and left/right.

Option one, put a printing press next to the guard's starting position:

    
    
    ....#.....
    ....+---+#
    ....|...|.
    ..#.|...|.
    ....|..#|.
    ....|...|.
    .#. _O_ ^---+.
    ........#.
    #.........
    ......#...
    

Option two, put a stack of failed suit prototypes in the bottom right quadrant
of the mapped area:

    
    
    ....#.....
    ....+---+#
    ....|...|.
    ..#.|...|.
    ..+-+-+#|.
    ..|.|.|.|.
    .#+-^-+-+.
    ...... _O_.#.
    #.........
    ......#...
    

Option three, put a crate of chimney-squeeze prototype fabric next to the
standing desk in the bottom right quadrant:

    
    
    ....#.....
    ....+---+#
    ....|...|.
    ..#.|...|.
    ..+-+-+#|.
    ..|.|.|.|.
    .#+-^-+-+.
    .+----+ _O_ #.
    #+----+...
    ......#...
    

Option four, put an alchemical retroencabulator near the bottom left corner:

    
    
    ....#.....
    ....+---+#
    ....|...|.
    ..#.|...|.
    ..+-+-+#|.
    ..|.|.|.|.
    .#+-^-+-+.
    ..|...|.#.
    # _O_ +---+...
    ......#...
    

Option five, put the alchemical retroencabulator a bit to the right instead:

    
    
    ....#.....
    ....+---+#
    ....|...|.
    ..#.|...|.
    ..+-+-+#|.
    ..|.|.|.|.
    .#+-^-+-+.
    ....|.|.#.
    #.. _O_ +-+...
    ......#...
    

Option six, put a tank of sovereign glue right next to the tank of universal
solvent:

    
    
    ....#.....
    ....+---+#
    ....|...|.
    ..#.|...|.
    ..+-+-+#|.
    ..|.|.|.|.
    .#+-^-+-+.
    .+----++#.
    #+----++..
    ......# _O_..
    

It doesn't really matter what you choose to use as an obstacle so long as you
and The Historians can put it into position without the guard noticing. The
important thing is having enough options that you can find one that minimizes
time paradoxes, and in this example, there are `_6_` different positions you
could choose.

You need to get the guard stuck in a loop by adding a single new obstruction.
_How many different positions could you choose for this obstruction?_

Answer:

Although it hasn't changed, you can still [get your puzzle input](6/input).

You can also [Shareon
[Bluesky](https://bsky.app/intent/compose?text=I%27ve+completed+Part+One+of+%22Guard+Gallivant%22+%2D+Day+6+%2D+Advent+of+Code+2024+%23AdventOfCode+https%3A%2F%2Fadventofcode%2Ecom%2F2024%2Fday%2F6)
[Twitter](https://twitter.com/intent/tweet?text=I%27ve+completed+Part+One+of+%22Guard+Gallivant%22+%2D+Day+6+%2D+Advent+of+Code+2024&url=https%3A%2F%2Fadventofcode%2Ecom%2F2024%2Fday%2F6&related=ericwastl&hashtags=AdventOfCode)
[Mastodon](javascript:void\(0\);)] this puzzle.

